{
    "add_repo": {
        "no_internet": "インターネットがありませんか？心配いりません。<a href=\"../swap/\">オフラインでアプリを送受信する方法</a>を学ぶ。",
        "open_repo_link": {
            "description": "リポジトリのリンクをメールやソーシャルメディア、SNSなどで受け取った場合、F-Droid でそれを開くとアプリをインストールすることができるようになります。",
            "short_summary": "リポジトリリンクを開く",
            "steps": {
                "step_1": "Android デバイスで F-Droid アプリをダウンロードしてインストールします。",
                "step_2": "デバイス上のWebブラウザでリンクをクリックして開きます。",
                "step_3": "リンクを開き，「Add to F-Droid」ボタンをタップします。"
            }
        },
        "scan_qr_code": {
            "short_summary": "QR コードをスキャン",
            "title": "ほかのデバイスでQRコードをスキャン"
        }
    },
    "create_repo": {
        "customize_repo": {
            "steps": {
                "step_2": "「編集」をクリック。"
            },
            "title": "リポジトリをカスタマイズ"
        },
        "overview": {
            "title": "自身のアプリやファイルを追加する。"
        },
        "share_repo": {
            "title": "リポジトリをカスタマイズ"
        },
        "title": "リポジトリを作るには",
        "update_repo": {
            "title": "リポジトリを更新"
        }
    },
    "misc": {
        "option_x_description": "選択肢 {{ number }}: {{ description }}",
        "overview": {
            "title": "F-Droid でできること",
            "tutorial_x_title": "チュートリアル {{ number }}: {{ title }}"
        },
        "step_x": "ステップ {{ number }}",
        "step_x_description": "ステップ{{ number }}: {{ description }}"
    },
    "swap": {
        "intro": "インターネットがありませんか？問題ありません。近くの人からアプリをダウンロードしましょう。",
        "overview": {
            "summary": "インターネットがありませんか？問題ありません。 F-Droid Nearby は同じ部屋にいる人々がコンテンツを送受信を可能にします。",
            "title": "オフラインでアプリを送受信する。"
        },
        "title": "オフラインでアプリを送受信する方法"
    }
}
